%YAML 1.1
%TAG !u! tag:unity3d.com,2011:
--- !u!114 &11400000
MonoBehaviour:
  m_ObjectHideFlags: 0
  m_CorrespondingSourceObject: {fileID: 0}
  m_PrefabInstance: {fileID: 0}
  m_PrefabAsset: {fileID: 0}
  m_GameObject: {fileID: 0}
  m_Enabled: 1
  m_EditorHideFlags: 0
  m_Script: {fileID: 11500000, guid: 59914f2c455562c49b20729229aaa738, type: 3}
  m_Name: Canine
  m_EditorClassIdentifier: 
  maxHp: 10
  healingMultiplier: 0.5
  teethMesh: {fileID: 4068373912626513877, guid: cd431bad70bf818468cd46e5b2c6d894, type: 3}
  teethMat: {fileID: 2100000, guid: 2796d81b47e10034488dbbf69588ca5e, type: 2}
  rootMesh: {fileID: 4068373912626513877, guid: 1b9ba5475a8e57846bee49e66ae9d545, type: 3}
  rootMat: {fileID: 2100000, guid: 743886a90fef2824f813aff9af41e273, type: 2}
